digraph g {
  "one" [
    label = "<word> one | <next> next | <nextexec> nextexec | <jump> jump"
    shape = "record"
    fontsize = "16"
  ];
  "two" [
    label = "<word> two | <next> next | <nextexec> nextexec | <jump> jump"
    shape = "record"
    fontsize = "16"
  ];
  "three" [
    label = "<word> three | <next> next | <nextexec> nextexec | <jump> jump"
    shape = "record"
    fontsize = "16"
  ];
  "one":next -> "two":word;
  "one":nextexec -> "two":word;
  "two":next -> "three":word;
  "two":nextexec -> "three":word;

  "statement" [
    style = "filled"
    penwidth = 1
    fillcolor = "white"
    fontname = "Courier New"
    shape = "Mrecord"
    label = "one two three"
  ];

  label = "\nJosl non-branching word linking during parse time";
  fontsize = 24;
}
